fir.vcd
$date
   Sun Oct 22 10:37:46 2023
$end
$version
  2023.1
$end
$timescale
  1ps
$end
$scope module fir_tb $end
$var wire 1 ! awready $end
$var wire 1 " wready $end
$var reg 1 # awvalid $end
$var reg 12 $ awaddr [11:0] $end
$var reg 1 % wvalid $end
$var reg 32 & wdata [31:0] $end
$var wire 1 ' arready $end
$var reg 1 ( rready $end
$var reg 1 ) arvalid $end
$var reg 12 * araddr [11:0] $end
$var wire 1 + rvalid $end
$var wire 32 , rdata [31:0] $end
$var reg 1 - ss_tvalid $end
$var reg 32 . ss_tdata [31:0] $end
$var reg 1 / ss_tlast $end
$var wire 1 0 ss_tready $end
$var reg 1 1 sm_tready $end
$var wire 1 2 sm_tvalid $end
$var wire 32 3 sm_tdata [31:0] $end
$var wire 1 4 sm_tlast $end
$var reg 1 5 axis_clk $end
$var reg 1 6 axis_rst_n $end
$var wire 4 7 tap_WE [3:0] $end
$var wire 1 8 tap_EN $end
$var wire 32 9 tap_Di [31:0] $end
$var wire 12 : tap_A [11:0] $end
$var wire 32 ; tap_Do [31:0] $end
$var wire 4 < data_WE [3:0] $end
$var wire 1 = data_EN $end
$var wire 32 > data_Di [31:0] $end
$var wire 12 ? data_A [11:0] $end
$var wire 32 @ data_Do [31:0] $end
$var reg 32 A data_length [31:0] $end
$var integer 32 B Din [31:0] $end
$var integer 32 C golden [31:0] $end
$var integer 32 D input_data [31:0] $end
$var integer 32 E golden_data [31:0] $end
$var integer 32 F m [31:0] $end
$var integer 32 G i [31:0] $end
$var integer 32 H k [31:0] $end
$var reg 1 I error $end
$var reg 1 J error_coef $end
$var integer 32 K timeout [31:0] $end
$scope module fir_DUT $end
$var reg 1 L awready $end
$var wire 1 " wready $end
$var wire 1 M awvalid $end
$var wire 12 N awaddr [11:0] $end
$var wire 1 O wvalid $end
$var wire 32 P wdata [31:0] $end
$var reg 1 Q arready $end
$var wire 1 R rready $end
$var wire 1 S arvalid $end
$var wire 12 T araddr [11:0] $end
$var reg 1 U rvalid $end
$var reg 32 V rdata [31:0] $end
$var wire 1 W ss_tvalid $end
$var wire 32 X ss_tdata [31:0] $end
$var wire 1 Y ss_tlast $end
$var reg 1 Z ss_tready $end
$var wire 1 [ sm_tready $end
$var reg 1 \ sm_tvalid $end
$var wire 32 3 sm_tdata [31:0] $end
$var wire 1 4 sm_tlast $end
$var wire 4 7 tap_WE [3:0] $end
$var wire 1 8 tap_EN $end
$var wire 32 9 tap_Di [31:0] $end
$var reg 12 ] tap_A [11:0] $end
$var wire 32 ; tap_Do [31:0] $end
$var wire 4 < data_WE [3:0] $end
$var wire 1 = data_EN $end
$var reg 32 ^ data_Di [31:0] $end
$var reg 12 _ data_A [11:0] $end
$var wire 32 @ data_Do [31:0] $end
$var wire 1 ` axis_clk $end
$var wire 1 a axis_rst_n $end
$var reg 12 b tap_A_reg [11:0] $end
$var reg 1 c ap_start $end
$var reg 1 d ap_done $end
$var reg 1 e ap_idle $end
$var reg 4 f ns [3:0] $end
$var reg 4 g cs [3:0] $end
$var reg 4 h count [3:0] $end
$var reg 4 i count2 [3:0] $end
$var reg 10 j count3 [9:0] $end
$var reg 32 k data_length [31:0] $end
$var reg 12 l addr_reg [11:0] $end
$var reg 4 m ptr_s [3:0] $end
$var reg 4 n ptr_c [3:0] $end
$var reg 4 o initial_ptr_s [3:0] $end
$var wire 64 p multr [63:0] $end
$var wire 32 q multa [31:0] $end
$var wire 32 r multb [31:0] $end
$var reg 64 s result [63:0] $end
$var wire 1 t last_mult $end
$var wire 1 u last_result $end
$var reg 32 v ss_tdata_reg [31:0] $end
$var reg 1 w dont_add $end
$scope module coef $end
$var wire 1 ` CLK $end
$var wire 4 7 WE [3:0] $end
$var wire 1 8 EN $end
$var wire 32 9 Di [31:0] $end
$var wire 32 ; Do [31:0] $end
$var wire 12 ] A [11:0] $end
$var reg 12 x r_A [11:0] $end
$upscope $end
$scope module xin $end
$var wire 1 ` CLK $end
$var wire 4 < WE [3:0] $end
$var wire 1 = EN $end
$var wire 32 ^ Di [31:0] $end
$var wire 32 @ Do [31:0] $end
$var wire 12 _ A [11:0] $end
$var reg 12 y r_A [11:0] $end
$upscope $end
$upscope $end
$scope module tap_RAM $end
$var wire 1 z CLK $end
$var wire 4 7 WE [3:0] $end
$var wire 1 8 EN $end
$var wire 32 9 Di [31:0] $end
$var wire 32 ; Do [31:0] $end
$var wire 12 : A [11:0] $end
$var reg 12 { r_A [11:0] $end
$upscope $end
$scope module data_RAM $end
$var wire 1 | CLK $end
$var wire 4 < WE [3:0] $end
$var wire 1 = EN $end
$var wire 32 > Di [31:0] $end
$var wire 32 @ Do [31:0] $end
$var wire 12 ? A [11:0] $end
$var reg 12 } r_A [11:0] $end
$upscope $end
$scope task config_write $end
$var reg 12 ~ addr [11:0] $end
$var reg 32 !! data [31:0] $end
$upscope $end
$scope task config_read_check $end
$var reg 12 "! addr [11:0] $end
$var reg 32 #! exp_data [31:0] $end
$var reg 32 $! mask [31:0] $end
$upscope $end
$scope task ss $end
$var reg 32 %! in1 [31:0] $end
$upscope $end
$scope task sm $end
$var reg 32 &! in2 [31:0] $end
$var reg 32 '! pcnt [31:0] $end
$upscope $end
$upscope $end
$enddefinitions $end
#0
$dumpvars
0!
b1001011000 !!
0"
bx "!
0#
bx #!
bx $
bx $!
0%
b1 %!
bx &
bx &!
0'
bx '!
x(
x)
bx *
0+
b0 ,
1-
b1 .
0/
00
11
02
b0 3
04
05
06
b0 7
18
bx 9
b11111111 :
bx ;
b0 <
1=
bx >
b0 ?
bx @
b1001011000 A
b11111111111111111011000111100000 B
b11111111111111111011000111100001 C
b1 D
b1 E
b1001011000 F
b0 G
bx H
0I
0J
b11110100001001000000 K
0L
0M
bx N
0O
bx P
0Q
xR
xS
bx T
0U
b0 V
1W
b1 X
0Y
0Z
1[
0\
b11111111 ]
bx ^
b0 _
0`
0a
b11111111 b
0c
0d
1e
b1 f
b0 g
b0 h
b0 i
b0 j
b0 k
bx l
b0 m
b0 n
b0 o
bx p
bx q
bx r
b0 s
0t
0u
b0 v
0w
bx x
bx y
0z
bx {
0|
bx }
b10000 ~
$end
#5000
1#
b10000 $
1%
b1001011000 &
15
b1001011000 9
b11110100001000111111 K
1M
b10000 N
1O
b1001011000 P
1`
b10000 l
b11111111 x
b0 y
1z
b11111111 {
1|
b0 }
#10000
05
0`
0z
0|
#15000
1!
15
16
b11110100001000111110 K
1L
1`
1a
b10 f
b1 g
1z
1|
#20000
05
0`
0z
0|
#25000
0!
1"
15
b11110100001000111101 K
0L
1`
b1 f
b10 g
1z
1|
#30000
05
0`
0z
0|
#35000
1!
b0 !!
0"
0#
0%
15
b0 :
b0 H
b11110100001000111100 K
1L
0M
0O
b0 ]
1`
b0 b
b1 g
b1 h
b1001011000 k
1z
1|
b100000 ~
#40000
05
0`
0z
0|
#45000
1#
b100000 $
1%
b0 &
15
b0 9
b11110100001000111011 K
1M
b100000 N
1O
b0 P
1`
b10 f
b100000 l
b0 x
1z
b0 {
1|
#50000
05
0`
0z
0|
#55000
0!
1"
15
b1111 7
b11110100001000111010 K
0L
1`
b1 f
b10 g
1z
1|
#60000
05
0`
0z
0|
#65000
1!
b11111111111111111111111111110110 !!
0"
0#
0%
10
15
b0 7
b100 :
b0 ;
b1111 <
b1 >
b1 H
b11110100001000111001 K
1L
0M
0O
1Z
b100 ]
b1 ^
1`
b100 b
b1 g
b10 h
b0 r
1z
1|
b100100 ~
#70000
05
0`
0z
0|
#75000
1#
b100100 $
1%
b10 %!
b11111111111111111111111111110110 &
b10 .
00
15
b11111111111111111111111111110110 9
bx ;
b0 <
b100 ?
b1 @
b1 G
b11110100001000111000 K
1M
b100100 N
1O
b11111111111111111111111111110110 P
b10 X
0Z
b100 _
1`
b10 f
b100100 l
b1 m
b1 q
bx r
b100 x
1z
b100 {
1|
#80000
05
0`
0z
0|
#85000
0!
1"
15
b1111 7
bx @
b11110100001000110111 K
0L
1`
b1 f
b10 g
bx q
b100 y
1z
1|
b100 }
#90000
05
0`
0z
0|
#95000
1!
b11111111111111111111111111110111 !!
0"
0#
0%
10
15
b0 7
b1000 :
b11111111111111111111111111110110 ;
b1111 <
b10 >
b10 H
b11110100001000110110 K
1L
0M
0O
1Z
b1000 ]
b10 ^
1`
b1000 b
b1 g
b11 h
b11111111111111111111111111110110 r
1z
1|
b101000 ~
#100000
05
0`
0z
0|
#105000
1#
b101000 $
1%
b11 %!
b11111111111111111111111111110111 &
b11 .
00
15
b11111111111111111111111111110111 9
bx ;
b0 <
b1000 ?
b10 @
b10 G
b11110100001000110101 K
1M
b101000 N
1O
b11111111111111111111111111110111 P
b11 X
0Z
b1000 _
1`
b10 f
b101000 l
b10 m
b10 q
bx r
b1000 x
1z
b1000 {
1|
#110000
05
0`
0z
0|
#115000
0!
1"
15
b1111 7
bx @
b11110100001000110100 K
0L
1`
b1 f
b10 g
bx q
b1000 y
1z
1|
b1000 }
#120000
05
0`
0z
0|
#125000
1!
b10111 !!
0"
0#
0%
10
15
b0 7
b1100 :
b11111111111111111111111111110111 ;
b1111 <
b11 >
b11 H
b11110100001000110011 K
1L
0M
0O
1Z
b1100 ]
b11 ^
1`
b1100 b
b1 g
b100 h
b11111111111111111111111111110111 r
1z
1|
b101100 ~
#130000
05
0`
0z
0|
#135000
1#
b101100 $
1%
b100 %!
b10111 &
b100 .
00
15
b10111 9
bx ;
b0 <
b1100 ?
b11 @
b11 G
b11110100001000110010 K
1M
b101100 N
1O
b10111 P
b100 X
0Z
b1100 _
1`
b10 f
b101100 l
b11 m
b11 q
bx r
b1100 x
1z
b1100 {
1|
#140000
05
0`
0z
0|
#145000
0!
1"
15
b1111 7
bx @
b11110100001000110001 K
0L
1`
b1 f
b10 g
bx q
b1100 y
1z
1|
b1100 }
#150000
05
0`
0z
0|
#155000
1!
b111000 !!
0"
0#
0%
10
15
b0 7
b10000 :
b10111 ;
b1111 <
b100 >
b100 H
b11110100001000110000 K
1L
0M
0O
1Z
b10000 ]
b100 ^
1`
b10000 b
b1 g
b101 h
b10111 r
1z
1|
b110000 ~
#160000
05
0`
0z
0|
#165000
1#
b110000 $
1%
b101 %!
b111000 &
b101 .
00
15
b111000 9
bx ;
b0 <
b10000 ?
b100 @
b100 G
b11110100001000101111 K
1M
b110000 N
1O
b111000 P
b101 X
0Z
b10000 _
1`
b10 f
b110000 l
b100 m
b100 q
bx r
b10000 x
1z
b10000 {
1|
#170000
05
0`
0z
0|
#175000
0!
1"
15
b1111 7
bx @
b11110100001000101110 K
0L
1`
b1 f
b10 g
bx q
b10000 y
1z
1|
b10000 }
#180000
05
0`
0z
0|
#185000
1!
b111111 !!
0"
0#
0%
10
15
b0 7
b10100 :
b111000 ;
b1111 <
b101 >
b101 H
b11110100001000101101 K
1L
0M
0O
1Z
b10100 ]
b101 ^
1`
b10100 b
b1 g
b110 h
b111000 r
1z
1|
b110100 ~
#190000
05
0`
0z
0|
#195000
1#
b110100 $
1%
b110 %!
b111111 &
b110 .
00
15
b111111 9
bx ;
b0 <
b10100 ?
b101 @
b101 G
b11110100001000101100 K
1M
b110100 N
1O
b111111 P
b110 X
0Z
b10100 _
1`
b10 f
b110100 l
b101 m
b101 q
bx r
b10100 x
1z
b10100 {
1|
#200000
05
0`
0z
0|
#205000
0!
1"
15
b1111 7
bx @
b11110100001000101011 K
0L
1`
b1 f
b10 g
bx q
b10100 y
1z
1|
b10100 }
#210000
05
0`
0z
0|
#215000
1!
b111000 !!
0"
0#
0%
10
15
b0 7
b11000 :
b111111 ;
b1111 <
b110 >
b110 H
b11110100001000101010 K
1L
0M
0O
1Z
b11000 ]
b110 ^
1`
b11000 b
b1 g
b111 h
b111111 r
1z
1|
b111000 ~
#220000
05
0`
0z
0|
#225000
1#
b111000 $
1%
b111 %!
b111000 &
b111 .
00
15
b111000 9
bx ;
b0 <
b11000 ?
b110 @
b110 G
b11110100001000101001 K
1M
b111000 N
1O
b111000 P
b111 X
0Z
b11000 _
1`
b10 f
b111000 l
b110 m
b110 q
bx r
b11000 x
1z
b11000 {
1|
#230000
05
0`
0z
0|
#235000
0!
1"
15
b1111 7
bx @
b11110100001000101000 K
0L
1`
b1 f
b10 g
bx q
b11000 y
1z
1|
b11000 }
#240000
05
0`
0z
0|
#245000
1!
b10111 !!
0"
0#
0%
10
15
b0 7
b11100 :
b111000 ;
b1111 <
b111 >
b111 H
b11110100001000100111 K
1L
0M
0O
1Z
b11100 ]
b111 ^
1`
b11100 b
b1 g
b1000 h
b111000 r
1z
1|
b111100 ~
#250000
05
0`
0z
0|
#255000
1#
b111100 $
1%
b1000 %!
b10111 &
b1000 .
00
15
b10111 9
bx ;
b0 <
b11100 ?
b111 @
b111 G
b11110100001000100110 K
1M
b111100 N
1O
b10111 P
b1000 X
0Z
b11100 _
1`
b10 f
b111100 l
b111 m
b111 q
bx r
b11100 x
1z
b11100 {
1|
#260000
05
0`
0z
0|
#265000
0!
1"
15
b1111 7
bx @
b11110100001000100101 K
0L
1`
b1 f
b10 g
bx q
b11100 y
1z
1|
b11100 }
#270000
05
0`
0z
0|
#275000
1!
b11111111111111111111111111110111 !!
0"
0#
0%
10
15
b0 7
b100000 :
b10111 ;
b1111 <
b1000 >
b1000 H
b11110100001000100100 K
1L
0M
0O
1Z
b100000 ]
b1000 ^
1`
b100000 b
b1 g
b1001 h
b10111 r
1z
1|
b1000000 ~
#280000
05
0`
0z
0|
#285000
1#
b1000000 $
1%
b1001 %!
b11111111111111111111111111110111 &
b1001 .
00
15
b11111111111111111111111111110111 9
bx ;
b0 <
b100000 ?
b1000 @
b1000 G
b11110100001000100011 K
1M
b1000000 N
1O
b11111111111111111111111111110111 P
b1001 X
0Z
b100000 _
1`
b10 f
b1000000 l
b1000 m
b1000 q
bx r
b100000 x
1z
b100000 {
1|
#290000
05
0`
0z
0|
#295000
0!
1"
15
b1111 7
bx @
b11110100001000100010 K
0L
1`
b1 f
b10 g
bx q
b100000 y
1z
1|
b100000 }
#300000
05
0`
0z
0|
#305000
1!
b11111111111111111111111111110110 !!
0"
0#
0%
10
15
b0 7
b100100 :
b11111111111111111111111111110111 ;
b1111 <
b1001 >
b1001 H
b11110100001000100001 K
1L
0M
0O
1Z
b100100 ]
b1001 ^
1`
b100100 b
b1 g
b1010 h
b11111111111111111111111111110111 r
1z
1|
b1000100 ~
#310000
05
0`
0z
0|
#315000
1#
b1000100 $
1%
b1010 %!
b11111111111111111111111111110110 &
b1010 .
00
15
b11111111111111111111111111110110 9
bx ;
b0 <
b100100 ?
b1001 @
b1001 G
b11110100001000100000 K
1M
b1000100 N
1O
b11111111111111111111111111110110 P
b1010 X
0Z
b100100 _
1`
b10 f
b1000100 l
b1001 m
b1001 q
bx r
b100100 x
1z
b100100 {
1|
#320000
05
0`
0z
0|
#325000
0!
1"
15
b1111 7
bx @
b11110100001000011111 K
0L
1`
b1 f
b10 g
bx q
b100100 y
1z
1|
b100100 }
#330000
05
0`
0z
0|
#335000
1!
b0 !!
0"
0#
0%
10
15
b0 7
b101000 :
b11111111111111111111111111110110 ;
b1111 <
b1010 >
b1010 H
b11110100001000011110 K
1L
0M
0O
1Z
b101000 ]
b1010 ^
1`
b101000 b
b1 g
b1011 h
b11111111111111111111111111110110 r
1z
1|
b1001000 ~
#340000
05
0`
0z
0|
#345000
1#
b1001000 $
1%
b1011 %!
b0 &
b1011 .
00
15
b0 9
bx ;
b0 <
b101000 ?
b1010 @
b1010 G
b11110100001000011101 K
1M
b1001000 N
1O
b0 P
b1011 X
0Z
b101000 _
1`
b10 f
b1001000 l
b1010 m
b1010 q
bx r
b101000 x
1z
b101000 {
1|
#350000
05
0`
0z
0|
#355000
0!
1"
15
b1111 7
bx @
b11110100001000011100 K
0L
1`
b11 f
b10 g
bx q
b101000 y
1z
1|
b101000 }
#360000
05
0`
0z
0|
#365000
0"
b100000 "!
0#
b0 #!
b11111111111111111111111111111111 $!
0%
0)
10
15
b0 7
b101100 :
b0 ;
b1111 <
b1011 >
b0 H
b11110100001000011011 K
0M
0O
0S
1Z
b101100 ]
b1011 ^
1`
b101100 b
b11 g
b0 h
b0 r
1z
1|
#370000
05
0`
0z
0|
#375000
b1100 %!
1(
1)
b100000 *
b1100 .
00
15
bx ;
b0 <
b0 ?
b1011 @
b1011 G
b11110100001000011010 K
1R
1S
b100000 T
b1100 X
0Z
b0 _
1`
b0 m
b1011 q
bx r
b101100 x
1z
b101100 {
1|
#380000
05
0`
0z
0|
#385000
1'
15
b1 @
b11110100001000011001 K
1Q
1`
b100 f
b1 q
b0 y
1z
1|
b0 }
#390000
05
0`
0z
0|
#395000
15
b0 :
b11110100001000011000 K
b0 ]
1`
b0 b
b100 g
1z
1|
#400000
05
0`
0z
0|
#405000
0'
1+
15
b0 ;
b11110100001000010111 K
0Q
1U
1`
b11 f
b0 p
b0 r
b0 x
1z
b0 {
1|
#410000
05
0`
0z
0|
#415000
b100100 "!
b11111111111111111111111111110110 #!
0)
0+
15
b1 H
b11110100001000010110 K
0S
0U
1`
b11 g
b1 h
1z
1|
#420000
05
0`
0z
0|
#425000
1)
b100100 *
15
b11110100001000010101 K
1S
b100100 T
1`
1z
1|
#430000
05
0`
0z
0|
#435000
1'
15
b11110100001000010100 K
1Q
1`
b100 f
1z
1|
#440000
05
0`
0z
0|
#445000
15
b100 :
b11110100001000010011 K
b100 ]
1`
b100 b
b100 g
1z
1|
#450000
05
0`
0z
0|
#455000
0'
1+
b11111111111111111111111111110110 ,
15
b11111111111111111111111111110110 ;
b11110100001000010010 K
0Q
1U
b11111111111111111111111111110110 V
1`
b11 f
b1111111111111111111111111111111111111111111111111111111111110110 p
b11111111111111111111111111110110 r
b100 x
1z
b100 {
1|
#460000
05
0`
0z
0|
#465000
b101000 "!
b11111111111111111111111111110111 #!
0)
0+
b0 ,
15
b10 H
b11110100001000010001 K
0S
0U
b0 V
1`
b11 g
b10 h
1z
1|
#470000
05
0`
0z
0|
#475000
1)
b101000 *
15
b11110100001000010000 K
1S
b101000 T
1`
1z
1|
#480000
05
0`
0z
0|
#485000
1'
15
b11110100001000001111 K
1Q
1`
b100 f
1z
1|
#490000
05
0`
0z
0|
#495000
15
b1000 :
b11110100001000001110 K
b1000 ]
1`
b1000 b
b100 g
1z
1|
#500000
05
0`
0z
0|
#505000
0'
1+
b11111111111111111111111111110111 ,
15
b11111111111111111111111111110111 ;
b11110100001000001101 K
0Q
1U
b11111111111111111111111111110111 V
1`
b11 f
b1111111111111111111111111111111111111111111111111111111111110111 p
b11111111111111111111111111110111 r
b1000 x
1z
b1000 {
1|
#510000
05
0`
0z
0|
#515000
b101100 "!
b10111 #!
0)
0+
b0 ,
15
b11 H
b11110100001000001100 K
0S
0U
b0 V
1`
b11 g
b11 h
1z
1|
#520000
05
0`
0z
0|
#525000
1)
b101100 *
15
b11110100001000001011 K
1S
b101100 T
1`
1z
1|
#530000
05
0`
0z
0|
#535000
1'
15
b11110100001000001010 K
1Q
1`
b100 f
1z
1|
#540000
05
0`
0z
0|
#545000
15
b1100 :
b11110100001000001001 K
b1100 ]
1`
b1100 b
b100 g
1z
1|
#550000
05
0`
0z
0|
#555000
0'
1+
b10111 ,
15
b10111 ;
b11110100001000001000 K
0Q
1U
b10111 V
1`
b11 f
b10111 p
b10111 r
b1100 x
1z
b1100 {
1|
#560000
05
0`
0z
0|
#565000
b110000 "!
b111000 #!
0)
0+
b0 ,
15
b100 H
b11110100001000000111 K
0S
0U
b0 V
1`
b11 g
b100 h
1z
1|
#570000
05
0`
0z
0|
#575000
1)
b110000 *
15
b11110100001000000110 K
1S
b110000 T
1`
1z
1|
#580000
05
0`
0z
0|
#585000
1'
15
b11110100001000000101 K
1Q
1`
b100 f
1z
1|
#590000
05
0`
0z
0|
#595000
15
b10000 :
b11110100001000000100 K
b10000 ]
1`
b10000 b
b100 g
1z
1|
#600000
05
0`
0z
0|
#605000
0'
1+
b111000 ,
15
b111000 ;
b11110100001000000011 K
0Q
1U
b111000 V
1`
b11 f
b111000 p
b111000 r
b10000 x
1z
b10000 {
1|
#610000
05
0`
0z
0|
#615000
b110100 "!
b111111 #!
0)
0+
b0 ,
15
b101 H
b11110100001000000010 K
0S
0U
b0 V
1`
b11 g
b101 h
1z
1|
#620000
05
0`
0z
0|
#625000
1)
b110100 *
15
b11110100001000000001 K
1S
b110100 T
1`
1z
1|
#630000
05
0`
0z
0|
#635000
1'
15
b11110100001000000000 K
1Q
1`
b100 f
1z
1|
#640000
05
0`
0z
0|
#645000
15
b10100 :
b11110100000111111111 K
b10100 ]
1`
b10100 b
b100 g
1z
1|
#650000
05
0`
0z
0|
#655000
0'
1+
b111111 ,
15
b111111 ;
b11110100000111111110 K
0Q
1U
b111111 V
1`
b11 f
b111111 p
b111111 r
b10100 x
1z
b10100 {
1|
#660000
05
0`
0z
0|
#665000
b111000 "!
b111000 #!
0)
0+
b0 ,
15
b110 H
b11110100000111111101 K
0S
0U
b0 V
1`
b11 g
b110 h
1z
1|
#670000
05
0`
0z
0|
#675000
1)
b111000 *
15
b11110100000111111100 K
1S
b111000 T
1`
1z
1|
#680000
05
0`
0z
0|
#685000
1'
15
b11110100000111111011 K
1Q
1`
b100 f
1z
1|
#690000
05
0`
0z
0|
#695000
15
b11000 :
b11110100000111111010 K
b11000 ]
1`
b11000 b
b100 g
1z
1|
#700000
05
0`
0z
0|
#705000
0'
1+
b111000 ,
15
b111000 ;
b11110100000111111001 K
0Q
1U
b111000 V
1`
b11 f
b111000 p
b111000 r
b11000 x
1z
b11000 {
1|
#710000
05
0`
0z
0|
#715000
b111100 "!
b10111 #!
0)
0+
b0 ,
15
b111 H
b11110100000111111000 K
0S
0U
b0 V
1`
b11 g
b111 h
1z
1|
#720000
05
0`
0z
0|
#725000
1)
b111100 *
15
b11110100000111110111 K
1S
b111100 T
1`
1z
1|
#730000
05
0`
0z
0|
#735000
1'
15
b11110100000111110110 K
1Q
1`
b100 f
1z
1|
#740000
05
0`
0z
0|
#745000
15
b11100 :
b11110100000111110101 K
b11100 ]
1`
b11100 b
b100 g
1z
1|
#750000
05
0`
0z
0|
#755000
0'
1+
b10111 ,
15
b10111 ;
b11110100000111110100 K
0Q
1U
b10111 V
1`
b11 f
b10111 p
b10111 r
b11100 x
1z
b11100 {
1|
#760000
05
0`
0z
0|
#765000
b1000000 "!
b11111111111111111111111111110111 #!
0)
0+
b0 ,
15
b1000 H
b11110100000111110011 K
0S
0U
b0 V
1`
b11 g
b1000 h
1z
1|
#770000
05
0`
0z
0|
#775000
1)
b1000000 *
15
b11110100000111110010 K
1S
b1000000 T
1`
1z
1|
#780000
05
0`
0z
0|
#785000
1'
15
b11110100000111110001 K
1Q
1`
b100 f
1z
1|
#790000
05
0`
0z
0|
#795000
15
b100000 :
b11110100000111110000 K
b100000 ]
1`
b100000 b
b100 g
1z
1|
#800000
05
0`
0z
0|
#805000
0'
1+
b11111111111111111111111111110111 ,
15
b11111111111111111111111111110111 ;
b11110100000111101111 K
0Q
1U
b11111111111111111111111111110111 V
1`
b11 f
b1111111111111111111111111111111111111111111111111111111111110111 p
b11111111111111111111111111110111 r
b100000 x
1z
b100000 {
1|
#810000
05
0`
0z
0|
#815000
b1000100 "!
b11111111111111111111111111110110 #!
0)
0+
b0 ,
15
b1001 H
b11110100000111101110 K
0S
0U
b0 V
1`
b11 g
b1001 h
1z
1|
#820000
05
0`
0z
0|
#825000
1)
b1000100 *
15
b11110100000111101101 K
1S
b1000100 T
1`
1z
1|
#830000
05
0`
0z
0|
#835000
1'
15
b11110100000111101100 K
1Q
1`
b100 f
1z
1|
#840000
05
0`
0z
0|
#845000
15
b100100 :
b11110100000111101011 K
b100100 ]
1`
b100100 b
b100 g
1z
1|
#850000
05
0`
0z
0|
#855000
0'
1+
b11111111111111111111111111110110 ,
15
b11111111111111111111111111110110 ;
b11110100000111101010 K
0Q
1U
b11111111111111111111111111110110 V
1`
b11 f
b1111111111111111111111111111111111111111111111111111111111110110 p
b11111111111111111111111111110110 r
b100100 x
1z
b100100 {
1|
#860000
05
0`
0z
0|
#865000
b1001000 "!
b0 #!
0)
0+
b0 ,
15
b1010 H
b11110100000111101001 K
0S
0U
b0 V
1`
b11 g
b1010 h
1z
1|
#870000
05
0`
0z
0|
#875000
1)
b1001000 *
15
b11110100000111101000 K
1S
b1001000 T
1`
1z
1|
#880000
05
0`
0z
0|
#885000
1'
15
b11110100000111100111 K
1Q
1`
b100 f
1z
1|
#890000
05
0`
0z
0|
#895000
15
b101000 :
b11110100000111100110 K
b101000 ]
1`
b101000 b
b100 g
1z
1|
#900000
05
0`
0z
0|
#905000
0'
1+
15
b0 ;
b11110100000111100101 K
0Q
1U
1`
b101 f
b0 p
b0 r
b101000 x
1z
b101000 {
1|
#910000
05
0`
0z
0|
#915000
0)
0+
15
b0 :
b1011 H
b11110100000111100100 K
0S
0U
b0 ]
1`
b111 f
b101 g
b0 h
1t
1z
1|
#920000
05
0`
0z
0|
#925000
b1 !!
b0 &!
b0 '!
12
14
15
b11111111 :
b0 H
b11110100000111100011 K
1\
b11111111 ]
1`
b101 f
b111 g
b1 h
0t
b0 x
1z
b0 {
1|
b0 ~
#930000
05
0`
0z
0|
#935000
1#
b0 $
1%
b1 &
02
04
15
b1 9
b100 :
bx ;
b11110100000111100010 K
1M
b0 N
1O
b1 P
0\
b100 ]
1`
1c
b101 g
b1 j
b0 l
b1 n
bx p
bx r
1w
b11111111 x
1z
b11111111 {
1|
#940000
05
0`
0z
0|
#945000
b11111111111111111111111111110110 &!
b1 '!
15
b0 :
b11111111111111111111111111110110 ;
b100 ?
b1 H
b11110100000111100001 K
b0 ]
b100 _
1`
0c
0e
b111 f
b1 m
b0 n
b1111111111111111111111111111111111111111111111111111111111110110 p
b11111111111111111111111111110110 r
1t
0w
b100 x
1z
b100 {
1|
#950000
05
0`
0z
0|
#955000
12
b11111111111111111111111111110110 3
14
15
b11111111 :
b0 ;
b0 ?
b10 @
b11110100000111100000 K
1\
b11111111 ]
b0 _
1`
b101 f
b111 g
b10 h
b0 m
b0 p
b10 q
b0 r
b1111111111111111111111111111111111111111111111111111111111110110 s
0t
b0 x
b100 y
1z
b0 {
1|
b100 }
#960000
05
0`
0z
0|
#965000
b11111111111111111111111111100011 &!
b10 '!
02
b0 3
04
15
b1000 :
bx ;
b1 @
b10 H
b11110100000111011111 K
0\
b1000 ]
1`
b101 g
b10 j
b10 n
bx p
b1 q
bx r
b0 s
1w
b11111111 x
b0 y
1z
b11111111 {
1|
b0 }
#970000
05
0`
0z
0|
#975000
15
b100 :
b11111111111111111111111111110111 ;
b100 ?
b11110100000111011110 K
b100 ]
b100 _
1`
b1 m
b1 n
b1111111111111111111111111111111111111111111111111111111111110111 p
b11111111111111111111111111110111 r
0w
b1000 x
1z
b1000 {
1|
#980000
05
0`
0z
0|
#985000
15
b0 :
b11111111111111111111111111110110 ;
b1000 ?
b10 @
b11110100000111011101 K
b0 ]
b1000 _
1`
b111 f
b10 m
b0 n
b1111111111111111111111111111111111111111111111111111111111101100 p
b10 q
b11111111111111111111111111110110 r
b1111111111111111111111111111111111111111111111111111111111110111 s
1t
b100 x
b100 y
1z
b100 {
1|
b100 }
#990000
05
0`
0z
0|
#995000
12
b11111111111111111111111111100011 3
14
15
b11111111 :
b0 ;
b0 ?
b11 @
b11110100000111011100 K
1\
b11111111 ]
b0 _
1`
b101 f
b111 g
b11 h
b0 m
b0 p
b11 q
b0 r
b1111111111111111111111111111111111111111111111111111111111100011 s
0t
b0 x
b1000 y
1z
b0 {
1|
b1000 }
#1000000
05
0`
0z
0|
#1005000
b11111111111111111111111111100111 &!
b11 '!
02
b0 3
04
15
b1100 :
bx ;
b1 @
b11 H
b11110100000111011011 K
0\
b1100 ]
1`
b101 g
b11 j
b11 n
bx p
b1 q
bx r
b0 s
1w
b11111111 x
b0 y
1z
b11111111 {
1|
b0 }
#1010000
05
0`
0z
0|
#1015000
15
b1000 :
b10111 ;
b100 ?
b11110100000111011010 K
b1000 ]
b100 _
1`
b1 m
b10 n
b10111 p
b10111 r
0w
b1100 x
1z
b1100 {
1|
#1020000
05
0`
0z
0|
#1025000
15
b100 :
b11111111111111111111111111110111 ;
b1000 ?
b10 @
b11110100000111011001 K
b100 ]
b1000 _
1`
b10 m
b1 n
b1111111111111111111111111111111111111111111111111111111111101110 p
b10 q
b11111111111111111111111111110111 r
b10111 s
b1000 x
b100 y
1z
b1000 {
1|
b100 }
#1030000
05
0`
0z
0|
#1035000
15
b0 :
b11111111111111111111111111110110 ;
b1100 ?
b11 @
b11110100000111011000 K
b0 ]
b1100 _
1`
b111 f
b11 m
b0 n
b1111111111111111111111111111111111111111111111111111111111100010 p
b11 q
b11111111111111111111111111110110 r
b101 s
1t
b100 x
b1000 y
1z
b100 {
1|
b1000 }
#1040000
05
0`
0z
0|
#1045000
12
b11111111111111111111111111100111 3
14
15
b11111111 :
b0 ;
b0 ?
b100 @
b11110100000111010111 K
1\
b11111111 ]
b0 _
1`
b101 f
b111 g
b100 h
b0 m
b0 p
b100 q
b0 r
b1111111111111111111111111111111111111111111111111111111111100111 s
0t
b0 x
b1100 y
1z
b0 {
1|
b1100 }
#1050000
05
0`
0z
0|
#1055000
b100011 &!
b100 '!
02
b0 3
04
15
b10000 :
bx ;
b1 @
b100 H
b11110100000111010110 K
0\
b10000 ]
1`
b101 g
b100 j
b100 n
bx p
b1 q
bx r
b0 s
1w
b11111111 x
b0 y
1z
b11111111 {
1|
b0 }
#1060000
05
0`
0z
0|
#1065000
15
b1100 :
b111000 ;
b100 ?
b11110100000111010101 K
b1100 ]
b100 _
1`
b1 m
b11 n
b111000 p
b111000 r
0w
b10000 x
1z
b10000 {
1|
